{
  "type": "FeatureCollection",
  "features": [
{"type":"Feature","properties":{"id":"317","locationType":"Bautzen Airport","dataField":"Bautzen","country":"Germany","faa":"\\N","icao":"EDAB","alt":"568","tz-offset":"1","dst":"E","tz":"Europe/Berlin"},"geometry":{"type":"Point","coordinates":[14.519721984863281,51.19361114501953]}},
{"type":"Feature","properties":{"id":"318","locationType":"Altenburg-Nobitz Airport","dataField":"Altenburg","country":"Germany","faa":"AOC","icao":"EDAC","alt":"640","tz-offset":"1","dst":"E","tz":"Europe/Berlin"},"geometry":{"type":"Point","coordinates":[12.506388664245605,50.9819450378418]}},
{"type":"Feature","properties":{"id":"319","locationType":"Dessau Airport","dataField":"Dessau","country":"Germany","faa":"\\N","icao":"EDAD","alt":"187","tz-offset":"1","dst":"E","tz":"Europe/Berlin"},"geometry":{"type":"Point","coordinates":[12.1909618378,51.831693541]}},
{"type":"Feature","properties":{"id":"320","locationType":"Eisenhüttenstadt Airport","dataField":"Eisenhuettenstadt","country":"Germany","faa":"\\N","icao":"EDAE","alt":"144","tz-offset":"1","dst":"E","tz":"Europe/Berlin"},"geometry":{"type":"Point","coordinates":[14.58753,52.195856]}},
{"type":"Feature","properties":{"id":"322","locationType":"Großenhain Airport","dataField":"Suhl","country":"Germany","faa":"\\N","icao":"EDAK","alt":"417","tz-offset":"1","dst":"E","tz":"Europe/Berlin"},"geometry":{"type":"Point","coordinates":[13.555556297302246,51.30805587768555]}},
{"type":"Feature","properties":{"id":"323","locationType":"Merseburg Airport","dataField":"Muehlhausen","country":"Germany","faa":"\\N","icao":"EDAM","alt":"341","tz-offset":"1","dst":"E","tz":"Europe/Berlin"},"geometry":{"type":"Point","coordinates":[11.9408333,51.3630556]}},
{"type":"Feature","properties":{"id":"324","locationType":"Halle-Oppin Airport","dataField":"Halle","country":"Germany","faa":"\\N","icao":"EDAQ","alt":"348","tz-offset":"1","dst":"E","tz":"Europe/Berlin"},"geometry":{"type":"Point","coordinates":[12.053889,51.552223]}},
{"type":"Feature","properties":{"id":"325","locationType":"Riesa-Göhlis Airport","dataField":"Riesa","country":"Germany","faa":"\\N","icao":"EDAU","alt":"322","tz-offset":"1","dst":"E","tz":"Europe/Berlin"},"geometry":{"type":"Point","coordinates":[13.3561105728,51.2936096191]}},
{"type":"Feature","properties":{"id":"326","locationType":"Rechlin-Lärz Airport","dataField":"Rechlin-laerz","country":"Germany","faa":"\\N","icao":"EDAX","alt":"220","tz-offset":"1","dst":"E","tz":"Europe/Berlin"},"geometry":{"type":"Point","coordinates":[12.7522220612,53.306388855]}},
{"type":"Feature","properties":{"id":"327","locationType":"Strausberg Airport","dataField":"Strausberg","country":"Germany","faa":"\\N","icao":"EDAY","alt":"262","tz-offset":"1","dst":"E","tz":"Europe/Berlin"},"geometry":{"type":"Point","coordinates":[13.916666984558105,52.5805549621582]}},
{"type":"Feature","properties":{"id":"328","locationType":"Schönhagen Airport","dataField":"Schoenhagen","country":"Germany","faa":"\\N","icao":"EDAZ","alt":"131","tz-offset":"1","dst":"E","tz":"Europe/Berlin"},"geometry":{"type":"Point","coordinates":[13.1563892365,52.2036094666]}},
{"type":"Feature","properties":{"id":"329","locationType":"Barth Airport","dataField":"Barth","country":"Germany","faa":"BBH","icao":"EDBH","alt":"23","tz-offset":"1","dst":"E","tz":"Europe/Berlin"},"geometry":{"type":"Point","coordinates":[12.710515,54.338253]}},
{"type":"Feature","properties":{"id":"330","locationType":"Jena-Schöngleina Airport","dataField":"Jena","country":"Germany","faa":"\\N","icao":"EDBJ","alt":"1247","tz-offset":"1","dst":"E","tz":"Europe/Berlin"},"geometry":{"type":"Point","coordinates":[11.714444160461426,50.915279388427734]}},
{"type":"Feature","properties":{"id":"331","locationType":"Kyritz Airport","dataField":"Kyritz","country":"Germany","faa":"\\N","icao":"EDBK","alt":"131","tz-offset":"1","dst":"E","tz":"Europe/Berlin"},"geometry":{"type":"Point","coordinates":[12.425277709960938,52.918888092041016]}},
{"type":"Feature","properties":{"id":"332","locationType":"Magdeburg \\\"City\\\" Airport","dataField":"Magdeburg","country":"Germany","faa":"\\N","icao":"EDBM","alt":"259","tz-offset":"1","dst":"E","tz":"Europe/Berlin"},"geometry":{"type":"Point","coordinates":[11.626389,52.073612]}},
{"type":"Feature","properties":{"id":"333","locationType":"Rothenburg/Görlitz Airport","dataField":"Rothenburg/ol","country":"Germany","faa":"\\N","icao":"EDBR","alt":"518","tz-offset":"1","dst":"E","tz":"Europe/Berlin"},"geometry":{"type":"Point","coordinates":[14.949999809265137,51.36333465576172]}},
{"type":"Feature","properties":{"id":"334","locationType":"Anklam Airport","dataField":"Anklam","country":"Germany","faa":"\\N","icao":"EDCA","alt":"16","tz-offset":"1","dst":"E","tz":"Europe/Berlin"},"geometry":{"type":"Point","coordinates":[13.668610572814941,53.83277893066406]}},
{"type":"Feature","properties":{"id":"335","locationType":"Cottbus-Drewitz Airport","dataField":"Cottbus","country":"Germany","faa":"\\N","icao":"EDCD","alt":"272","tz-offset":"1","dst":"E","tz":"Europe/Berlin"},"geometry":{"type":"Point","coordinates":[14.531944,51.889442]}},
{"type":"Feature","properties":{"id":"336","locationType":"Kamenz Airport","dataField":"Kamenz","country":"Germany","faa":"\\N","icao":"EDCM","alt":"495","tz-offset":"1","dst":"E","tz":"Europe/Berlin"},"geometry":{"type":"Point","coordinates":[14.1274995803833,51.29694366455078]}},
{"type":"Feature","properties":{"id":"337","locationType":"Berlin-Schönefeld International Airport","dataField":"Berlin","country":"Germany","faa":"SXF","icao":"EDDB","alt":"157","tz-offset":"1","dst":"E","tz":"Europe/Berlin"},"geometry":{"type":"Point","coordinates":[13.522500038147,52.380001068115]}},
{"type":"Feature","properties":{"id":"338","locationType":"Dresden Airport","dataField":"Dresden","country":"Germany","faa":"DRS","icao":"EDDC","alt":"755","tz-offset":"1","dst":"E","tz":"Europe/Berlin"},"geometry":{"type":"Point","coordinates":[13.767200469970703,51.1328010559082]}},
{"type":"Feature","properties":{"id":"339","locationType":"Erfurt Airport","dataField":"Erfurt","country":"Germany","faa":"ERF","icao":"EDDE","alt":"1036","tz-offset":"1","dst":"E","tz":"Europe/Berlin"},"geometry":{"type":"Point","coordinates":[10.958100318908691,50.979801177978516]}},
{"type":"Feature","properties":{"id":"340","locationType":"Frankfurt am Main International Airport","dataField":"Frankfurt","country":"Germany","faa":"FRA","icao":"EDDF","alt":"364","tz-offset":"1","dst":"E","tz":"Europe/Berlin"},"geometry":{"type":"Point","coordinates":[8.5705556,50.0333333]}},
{"type":"Feature","properties":{"id":"341","locationType":"Münster Osnabrück Airport","dataField":"Munster","country":"Germany","faa":"FMO","icao":"EDDG","alt":"160","tz-offset":"1","dst":"E","tz":"Europe/Berlin"},"geometry":{"type":"Point","coordinates":[7.68483018875,52.134601593]}},
{"type":"Feature","properties":{"id":"342","locationType":"Hamburg Airport","dataField":"Hamburg","country":"Germany","faa":"HAM","icao":"EDDH","alt":"53","tz-offset":"1","dst":"E","tz":"Europe/Berlin"},"geometry":{"type":"Point","coordinates":[9.9882297515869,53.630401611328]}},
{"type":"Feature","properties":{"id":"343","locationType":"Berlin-Tempelhof International Airport","dataField":"Berlin","country":"Germany","faa":"THF","icao":"EDDI","alt":"167","tz-offset":"1","dst":"E","tz":"Europe/Berlin"},"geometry":{"type":"Point","coordinates":[13.403900146484375,52.472999572753906]}},
{"type":"Feature","properties":{"id":"344","locationType":"Cologne Bonn Airport","dataField":"Cologne","country":"Germany","faa":"CGN","icao":"EDDK","alt":"302","tz-offset":"1","dst":"E","tz":"Europe/Berlin"},"geometry":{"type":"Point","coordinates":[7.1427397728,50.8658981323]}},
{"type":"Feature","properties":{"id":"345","locationType":"Düsseldorf International Airport","dataField":"Duesseldorf","country":"Germany","faa":"DUS","icao":"EDDL","alt":"147","tz-offset":"1","dst":"E","tz":"Europe/Berlin"},"geometry":{"type":"Point","coordinates":[6.766779899597168,51.28950119018555]}},
{"type":"Feature","properties":{"id":"346","locationType":"Munich International Airport","dataField":"Munich","country":"Germany","faa":"MUC","icao":"EDDM","alt":"1487","tz-offset":"1","dst":"E","tz":"Europe/Berlin"},"geometry":{"type":"Point","coordinates":[11.786100387573,48.353801727295]}},
{"type":"Feature","properties":{"id":"347","locationType":"Nuremberg Airport","dataField":"Nuernberg","country":"Germany","faa":"NUE","icao":"EDDN","alt":"1046","tz-offset":"1","dst":"E","tz":"Europe/Berlin"},"geometry":{"type":"Point","coordinates":[11.0780556,49.498699]}},
{"type":"Feature","properties":{"id":"348","locationType":"Leipzig Halle Airport","dataField":"Leipzig","country":"Germany","faa":"LEJ","icao":"EDDP","alt":"465","tz-offset":"1","dst":"E","tz":"Europe/Berlin"},"geometry":{"type":"Point","coordinates":[12.2363889,51.4238889]}},
{"type":"Feature","properties":{"id":"349","locationType":"Saarbrücken Airport","dataField":"Saarbruecken","country":"Germany","faa":"SCN","icao":"EDDR","alt":"1058","tz-offset":"1","dst":"E","tz":"Europe/Berlin"},"geometry":{"type":"Point","coordinates":[7.10950994492,49.214599609400004]}},
{"type":"Feature","properties":{"id":"350","locationType":"Stuttgart Airport","dataField":"Stuttgart","country":"Germany","faa":"STR","icao":"EDDS","alt":"1276","tz-offset":"1","dst":"E","tz":"Europe/Berlin"},"geometry":{"type":"Point","coordinates":[9.22196006775,48.689899444599995]}},
{"type":"Feature","properties":{"id":"351","locationType":"Berlin-Tegel International Airport","dataField":"Berlin","country":"Germany","faa":"TXL","icao":"EDDT","alt":"122","tz-offset":"1","dst":"E","tz":"Europe/Berlin"},"geometry":{"type":"Point","coordinates":[13.2876996994,52.5597000122]}},
{"type":"Feature","properties":{"id":"352","locationType":"Hannover Airport","dataField":"Hannover","country":"Germany","faa":"HAJ","icao":"EDDV","alt":"183","tz-offset":"1","dst":"E","tz":"Europe/Berlin"},"geometry":{"type":"Point","coordinates":[9.685079574580001,52.461101532]}},
{"type":"Feature","properties":{"id":"353","locationType":"Bremen Airport","dataField":"Bremen","country":"Germany","faa":"BRE","icao":"EDDW","alt":"14","tz-offset":"1","dst":"E","tz":"Europe/Berlin"},"geometry":{"type":"Point","coordinates":[8.78666973114,53.0475006104]}},
{"type":"Feature","properties":{"id":"354","locationType":"Frankfurt-Egelsbach Airport","dataField":"Egelsbach","country":"Germany","faa":"QEF","icao":"EDFE","alt":"384","tz-offset":"1","dst":"E","tz":"Europe/Berlin"},"geometry":{"type":"Point","coordinates":[8.645833015441895,49.959999084472656]}},
{"type":"Feature","properties":{"id":"355","locationType":"Frankfurt-Hahn Airport","dataField":"Hahn","country":"Germany","faa":"HHN","icao":"EDFH","alt":"1649","tz-offset":"1","dst":"E","tz":"Europe/Berlin"},"geometry":{"type":"Point","coordinates":[7.263889789579999,49.948699951200005]}},
{"type":"Feature","properties":{"id":"356","locationType":"Mannheim-City Airport","dataField":"Mannheim","country":"Germany","faa":"MHG","icao":"EDFM","alt":"308","tz-offset":"1","dst":"E","tz":"Europe/Berlin"},"geometry":{"type":"Point","coordinates":[8.514166831970215,49.47305679321289]}},
{"type":"Feature","properties":{"id":"357","locationType":"Allendorf/Eder Airport","dataField":"Allendorf","country":"Germany","faa":"\\N","icao":"EDFQ","alt":"1158","tz-offset":"1","dst":"E","tz":"Europe/Berlin"},"geometry":{"type":"Point","coordinates":[8.680832862854004,51.03499984741211]}},
{"type":"Feature","properties":{"id":"358","locationType":"Worms Airport","dataField":"Worms","country":"Germany","faa":"\\N","icao":"EDFV","alt":"295","tz-offset":"1","dst":"E","tz":"Europe/Berlin"},"geometry":{"type":"Point","coordinates":[8.368333,49.606945]}},
{"type":"Feature","properties":{"id":"359","locationType":"Mainz-Finthen Airport","dataField":"Mainz","country":"Germany","faa":"\\N","icao":"EDFZ","alt":"525","tz-offset":"1","dst":"E","tz":"Europe/Berlin"},"geometry":{"type":"Point","coordinates":[8.147222,49.967499]}},
{"type":"Feature","properties":{"id":"360","locationType":"Eisenach-Kindel Airport","dataField":"Eisenach","country":"Germany","faa":"\\N","icao":"EDGE","alt":"1112","tz-offset":"1","dst":"E","tz":"Europe/Berlin"},"geometry":{"type":"Point","coordinates":[10.47973,50.991604]}},
{"type":"Feature","properties":{"id":"361","locationType":"Siegerland Airport","dataField":"Siegerland","country":"Germany","faa":"\\N","icao":"EDGS","alt":"1966","tz-offset":"1","dst":"E","tz":"Europe/Berlin"},"geometry":{"type":"Point","coordinates":[8.082969665527344,50.707698822021484]}},
{"type":"Feature","properties":{"id":"362","locationType":"Hamburg-Finkenwerder Airport","dataField":"Hamburg","country":"Germany","faa":"XFW","icao":"EDHI","alt":"23","tz-offset":"1","dst":"E","tz":"Europe/Berlin"},"geometry":{"type":"Point","coordinates":[9.835556030273438,53.5352783203125]}},
{"type":"Feature","properties":{"id":"363","locationType":"Kiel-Holtenau Airport","dataField":"Kiel","country":"Germany","faa":"KEL","icao":"EDHK","alt":"102","tz-offset":"1","dst":"E","tz":"Europe/Berlin"},"geometry":{"type":"Point","coordinates":[10.145277976989746,54.37944412231445]}},
{"type":"Feature","properties":{"id":"364","locationType":"Lübeck Blankensee Airport","dataField":"Luebeck","country":"Germany","faa":"LBC","icao":"EDHL","alt":"53","tz-offset":"1","dst":"E","tz":"Europe/Berlin"},"geometry":{"type":"Point","coordinates":[10.7192001343,53.8054008484]}},
{"type":"Feature","properties":{"id":"365","locationType":"Flugplatz Dahlemer Binz","dataField":"Dahlemer Binz","country":"Germany","faa":"\\N","icao":"EDKV","alt":"1896","tz-offset":"1","dst":"E","tz":"Europe/Berlin"},"geometry":{"type":"Point","coordinates":[6.5288891792,50.405555725]}},
{"type":"Feature","properties":{"id":"366","locationType":"Meinerzhagen Airport","dataField":"Meinerzhagen","country":"Germany","faa":"\\N","icao":"EDKZ","alt":"1549","tz-offset":"1","dst":"E","tz":"Europe/Berlin"},"geometry":{"type":"Point","coordinates":[7.599999904632568,51.099998474121094]}},
{"type":"Feature","properties":{"id":"367","locationType":"Arnsberg-Menden Airport","dataField":"Arnsberg","country":"Germany","faa":"ZCA","icao":"EDLA","alt":"794","tz-offset":"1","dst":"E","tz":"Europe/Berlin"},"geometry":{"type":"Point","coordinates":[7.8983330726623535,51.483890533447266]}},
{"type":"Feature","properties":{"id":"368","locationType":"Essen Mulheim Airport","dataField":"Essen","country":"Germany","faa":"ESS","icao":"EDLE","alt":"424","tz-offset":"1","dst":"E","tz":"Europe/Berlin"},"geometry":{"type":"Point","coordinates":[6.9373297691345215,51.40230178833008]}},
{"type":"Feature","properties":{"id":"369","locationType":"Bielefeld Airport","dataField":"Bielefeld","country":"Germany","faa":"\\N","icao":"EDLI","alt":"433","tz-offset":"1","dst":"E","tz":"Europe/Berlin"},"geometry":{"type":"Point","coordinates":[8.544444084170001,51.9647216797]}},
{"type":"Feature","properties":{"id":"370","locationType":"Mönchengladbach Airport","dataField":"Moenchengladbach","country":"Germany","faa":"MGL","icao":"EDLN","alt":"125","tz-offset":"1","dst":"E","tz":"Europe/Berlin"},"geometry":{"type":"Point","coordinates":[6.504444122314453,51.23027801513672]}},
{"type":"Feature","properties":{"id":"371","locationType":"Paderborn Lippstadt Airport","dataField":"Paderborn","country":"Germany","faa":"PAD","icao":"EDLP","alt":"699","tz-offset":"1","dst":"E","tz":"Europe/Berlin"},"geometry":{"type":"Point","coordinates":[8.616319656369999,51.614101409899995]}},
{"type":"Feature","properties":{"id":"372","locationType":"Stadtlohn-Vreden Airport","dataField":"Stadtlohn","country":"Germany","faa":"\\N","icao":"EDLS","alt":"157","tz-offset":"1","dst":"E","tz":"Europe/Berlin"},"geometry":{"type":"Point","coordinates":[6.8405561447143555,51.99583435058594]}},
{"type":"Feature","properties":{"id":"373","locationType":"Dortmund Airport","dataField":"Dortmund","country":"Germany","faa":"DTM","icao":"EDLW","alt":"425","tz-offset":"1","dst":"E","tz":"Europe/Berlin"},"geometry":{"type":"Point","coordinates":[7.61223983765,51.51829910279999]}},
{"type":"Feature","properties":{"id":"374","locationType":"Augsburg Airport","dataField":"Augsburg","country":"Germany","faa":"AGB","icao":"EDMA","alt":"1516","tz-offset":"1","dst":"E","tz":"Europe/Berlin"},"geometry":{"type":"Point","coordinates":[10.931667,48.425278]}},
{"type":"Feature","properties":{"id":"375","locationType":"Biberach a.d. Riß Airport","dataField":"Biberach","country":"Germany","faa":"\\N","icao":"EDMB","alt":"1903","tz-offset":"1","dst":"E","tz":"Europe/Berlin"},"geometry":{"type":"Point","coordinates":[9.762778282165527,48.11111068725586]}},
{"type":"Feature","properties":{"id":"376","locationType":"Eggenfelden Airport","dataField":"Eggenfelden","country":"Germany","faa":"\\N","icao":"EDME","alt":"1342","tz-offset":"1","dst":"E","tz":"Europe/Berlin"},"geometry":{"type":"Point","coordinates":[12.723610877990723,48.39611053466797]}},
{"type":"Feature","properties":{"id":"377","locationType":"Mindelheim-Mattsies Airport","dataField":"Mindelheim","country":"Germany","faa":"\\N","icao":"EDMN","alt":"1857","tz-offset":"1","dst":"E","tz":"Europe/Berlin"},"geometry":{"type":"Point","coordinates":[10.524999618530273,48.1069450378418]}},
{"type":"Feature","properties":{"id":"378","locationType":"Oberpfaffenhofen Airport","dataField":"Oberpfaffenhofen","country":"Germany","faa":"OBF","icao":"EDMO","alt":"1947","tz-offset":"1","dst":"E","tz":"Europe/Berlin"},"geometry":{"type":"Point","coordinates":[11.283100128173828,48.08140182495117]}},
{"type":"Feature","properties":{"id":"379","locationType":"Straubing Airport","dataField":"Straubing","country":"Germany","faa":"RBM","icao":"EDMS","alt":"1047","tz-offset":"1","dst":"E","tz":"Europe/Berlin"},"geometry":{"type":"Point","coordinates":[12.516667366027832,48.90083312988281]}},
{"type":"Feature","properties":{"id":"380","locationType":"Vilshofen Airport","dataField":"Vilshofen","country":"Germany","faa":"\\N","icao":"EDMV","alt":"991","tz-offset":"1","dst":"E","tz":"Europe/Berlin"},"geometry":{"type":"Point","coordinates":[13.195555686950684,48.6349983215332]}},
{"type":"Feature","properties":{"id":"381","locationType":"Leutkirch-Unterzeil Airport","dataField":"Leutkirch","country":"Germany","faa":"\\N","icao":"EDNL","alt":"2100","tz-offset":"1","dst":"E","tz":"Europe/Berlin"},"geometry":{"type":"Point","coordinates":[10.014166831970215,47.858890533447266]}},
{"type":"Feature","properties":{"id":"382","locationType":"Friedrichshafen Airport","dataField":"Friedrichshafen","country":"Germany","faa":"FDH","icao":"EDNY","alt":"1367","tz-offset":"1","dst":"E","tz":"Europe/Berlin"},"geometry":{"type":"Point","coordinates":[9.51148986816,47.671298980699994]}},
{"type":"Feature","properties":{"id":"383","locationType":"Schwerin Parchim Airport","dataField":"Parchim","country":"Germany","faa":"SZW","icao":"EDOP","alt":"166","tz-offset":"1","dst":"E","tz":"Europe/Berlin"},"geometry":{"type":"Point","coordinates":[11.7834,53.426998]}},
{"type":"Feature","properties":{"id":"384","locationType":"Stendal-Borstel Airport","dataField":"Stendal","country":"Germany","faa":"ZSN","icao":"EDOV","alt":"184","tz-offset":"1","dst":"E","tz":"Europe/Berlin"},"geometry":{"type":"Point","coordinates":[11.818611145019531,52.62888717651367]}},
{"type":"Feature","properties":{"id":"385","locationType":"Aalen-Heidenheim/Elchingen Airport","dataField":"Aalen-heidenheim","country":"Germany","faa":"\\N","icao":"EDPA","alt":"1916","tz-offset":"1","dst":"E","tz":"Europe/Berlin"},"geometry":{"type":"Point","coordinates":[10.264721870422363,48.77777862548828]}},
{"type":"Feature","properties":{"id":"386","locationType":"Bayreuth Airport","dataField":"Bayreuth","country":"Germany","faa":"BYU","icao":"EDQD","alt":"1601","tz-offset":"1","dst":"E","tz":"Europe/Berlin"},"geometry":{"type":"Point","coordinates":[11.640000343322754,49.98500061035156]}},
{"type":"Feature","properties":{"id":"387","locationType":"Burg Feuerstein Airport","dataField":"Burg Feuerstein","country":"Germany","faa":"\\N","icao":"EDQE","alt":"1673","tz-offset":"1","dst":"E","tz":"Europe/Berlin"},"geometry":{"type":"Point","coordinates":[11.133610725403,49.794166564941]}},
{"type":"Feature","properties":{"id":"388","locationType":"Hof-Plauen Airport","dataField":"Hof","country":"Germany","faa":"HOQ","icao":"EDQM","alt":"1959","tz-offset":"1","dst":"E","tz":"Europe/Berlin"},"geometry":{"type":"Point","coordinates":[11.856389045715332,50.288612365722656]}},
{"type":"Feature","properties":{"id":"389","locationType":"Haßfurt-Schweinfurt Airport","dataField":"Hassfurt","country":"Germany","faa":"\\N","icao":"EDQT","alt":"719","tz-offset":"1","dst":"E","tz":"Europe/Berlin"},"geometry":{"type":"Point","coordinates":[10.529443740844727,50.0180549621582]}},
{"type":"Feature","properties":{"id":"390","locationType":"Koblenz-Winningen Airport","dataField":"Koblenz","country":"Germany","faa":"ZNV","icao":"EDRK","alt":"640","tz-offset":"1","dst":"E","tz":"Europe/Berlin"},"geometry":{"type":"Point","coordinates":[7.528611183166504,50.325557708740234]}},
{"type":"Feature","properties":{"id":"391","locationType":"Trier-Föhren Airport","dataField":"Trier","country":"Germany","faa":"ZQF","icao":"EDRT","alt":"666","tz-offset":"1","dst":"E","tz":"Europe/Berlin"},"geometry":{"type":"Point","coordinates":[6.787499904632568,49.863887786865234]}},
{"type":"Feature","properties":{"id":"392","locationType":"Speyer Airport","dataField":"Speyer","country":"Germany","faa":"ZQC","icao":"EDRY","alt":"312","tz-offset":"1","dst":"E","tz":"Europe/Berlin"},"geometry":{"type":"Point","coordinates":[8.45138931274414,49.30472183227539]}},
{"type":"Feature","properties":{"id":"393","locationType":"Zweibrücken Airport","dataField":"Zweibruecken","country":"Germany","faa":"ZQW","icao":"EDRZ","alt":"1132","tz-offset":"1","dst":"E","tz":"Europe/Berlin"},"geometry":{"type":"Point","coordinates":[7.400559902191162,49.20940017700195]}},
{"type":"Feature","properties":{"id":"394","locationType":"Donaueschingen-Villingen Airport","dataField":"Donaueschingen","country":"Germany","faa":"ZQL","icao":"EDTD","alt":"2231","tz-offset":"1","dst":"E","tz":"Europe/Berlin"},"geometry":{"type":"Point","coordinates":[8.52222156525,47.97333145139999]}},
{"type":"Feature","properties":{"id":"395","locationType":"Freiburg i. Br. Airport","dataField":"Freiburg","country":"Germany","faa":"\\N","icao":"EDTF","alt":"801","tz-offset":"1","dst":"E","tz":"Europe/Berlin"},"geometry":{"type":"Point","coordinates":[7.83249998093,48.022777557400005]}},
{"type":"Feature","properties":{"id":"396","locationType":"Mengen-Hohentengen Airport","dataField":"Mengen","country":"Germany","faa":"\\N","icao":"EDTM","alt":"1818","tz-offset":"1","dst":"E","tz":"Europe/Berlin"},"geometry":{"type":"Point","coordinates":[9.372777938842773,48.053890228271484]}},
{"type":"Feature","properties":{"id":"397","locationType":"Adolf Würth Airport","dataField":"Schwaebisch Hall","country":"Germany","faa":"\\N","icao":"EDTY","alt":"1299","tz-offset":"1","dst":"E","tz":"Europe/Berlin"},"geometry":{"type":"Point","coordinates":[9.783888816829998,49.1183319092]}},
{"type":"Feature","properties":{"id":"398","locationType":"Finsterwalde/Schacksdorf Airport","dataField":"Soest","country":"Germany","faa":"\\N","icao":"EDUS","alt":"384","tz-offset":"1","dst":"E","tz":"Europe/Berlin"},"geometry":{"type":"Point","coordinates":[13.743611,51.607498]}},
{"type":"Feature","properties":{"id":"399","locationType":"Braunschweig Wolfsburg Airport","dataField":"Braunschweig","country":"Germany","faa":"BWE","icao":"EDVE","alt":"295","tz-offset":"1","dst":"E","tz":"Europe/Berlin"},"geometry":{"type":"Point","coordinates":[10.5561,52.319199]}},
{"type":"Feature","properties":{"id":"400","locationType":"Kassel-Calden Airport","dataField":"Kassel","country":"Germany","faa":"KSF","icao":"EDVK","alt":"820","tz-offset":"1","dst":"E","tz":"Europe/Berlin"},"geometry":{"type":"Point","coordinates":[9.384967,51.417273]}},
{"type":"Feature","properties":{"id":"401","locationType":"Hildesheim Airport","dataField":"Hildesheim","country":"Germany","faa":"\\N","icao":"EDVM","alt":"292","tz-offset":"1","dst":"E","tz":"Europe/Berlin"},"geometry":{"type":"Point","coordinates":[9.946389198303223,52.18138885498047]}},
{"type":"Feature","properties":{"id":"402","locationType":"Bremerhaven Airport","dataField":"Bremerhaven","country":"Germany","faa":"BRV","icao":"EDWB","alt":"10","tz-offset":"1","dst":"E","tz":"Europe/Berlin"},"geometry":{"type":"Point","coordinates":[8.572778,53.506943]}},
{"type":"Feature","properties":{"id":"403","locationType":"Emden Airport","dataField":"Emden","country":"Germany","faa":"EME","icao":"EDWE","alt":"3","tz-offset":"1","dst":"E","tz":"Europe/Berlin"},"geometry":{"type":"Point","coordinates":[7.227499961853027,53.391109466552734]}},
{"type":"Feature","properties":{"id":"404","locationType":"Leer-Papenburg Airport","dataField":"Leer","country":"Germany","faa":"\\N","icao":"EDWF","alt":"3","tz-offset":"1","dst":"E","tz":"Europe/Berlin"},"geometry":{"type":"Point","coordinates":[7.441667079925537,53.271942138671875]}},
{"type":"Feature","properties":{"id":"405","locationType":"Wilhelmshaven-Mariensiel Airport","dataField":"Wilhelmshaven","country":"Germany","faa":"WVN","icao":"EDWI","alt":"16","tz-offset":"1","dst":"E","tz":"Europe/Berlin"},"geometry":{"type":"Point","coordinates":[8.05222225189209,53.502220153808594]}},
{"type":"Feature","properties":{"id":"406","locationType":"Borkum Airport","dataField":"Borkum","country":"Germany","faa":"BMK","icao":"EDWR","alt":"3","tz-offset":"1","dst":"E","tz":"Europe/Berlin"},"geometry":{"type":"Point","coordinates":[6.70916700363,53.5963897705]}},
{"type":"Feature","properties":{"id":"407","locationType":"Norderney Airport","dataField":"Norderney","country":"Germany","faa":"NRD","icao":"EDWY","alt":"7","tz-offset":"1","dst":"E","tz":"Europe/Berlin"},"geometry":{"type":"Point","coordinates":[7.230000019073486,53.70694351196289]}},
{"type":"Feature","properties":{"id":"408","locationType":"Flensburg-Schäferhaus Airport","dataField":"Flensburg","country":"Germany","faa":"FLF","icao":"EDXF","alt":"131","tz-offset":"1","dst":"E","tz":"Europe/Berlin"},"geometry":{"type":"Point","coordinates":[9.378889083862305,54.77333450317383]}},
{"type":"Feature","properties":{"id":"409","locationType":"Rendsburg-Schachtholm Airport","dataField":"Rendsburg","country":"Germany","faa":"\\N","icao":"EDXR","alt":"23","tz-offset":"1","dst":"E","tz":"Europe/Berlin"},"geometry":{"type":"Point","coordinates":[9.599444389343262,54.220001220703125]}},
{"type":"Feature","properties":{"id":"410","locationType":"Westerland Sylt Airport","dataField":"Westerland","country":"Germany","faa":"GWT","icao":"EDXW","alt":"51","tz-offset":"1","dst":"E","tz":"Europe/Berlin"},"geometry":{"type":"Point","coordinates":[8.34047031403,54.9132003784]}},
{"type":"Feature","properties":{"id":"750","locationType":"Spangdahlem Air Base","dataField":"Spangdahlem","country":"Germany","faa":"SPM","icao":"ETAD","alt":"1197","tz-offset":"1","dst":"E","tz":"Europe/Berlin"},"geometry":{"type":"Point","coordinates":[6.69250011444,49.9726982117]}},
{"type":"Feature","properties":{"id":"751","locationType":"Ramstein Air Base","dataField":"Ramstein","country":"Germany","faa":"RMS","icao":"ETAR","alt":"776","tz-offset":"1","dst":"E","tz":"Europe/Berlin"},"geometry":{"type":"Point","coordinates":[7.600279808044434,49.4369010925293]}},
{"type":"Feature","properties":{"id":"753","locationType":"[Duplicate] Giebelstadt Army Air Field","dataField":"Giebelstadt","country":"Germany","faa":"GHF","icao":"ETEU","alt":"980","tz-offset":"1","dst":"E","tz":"Europe/Berlin"},"geometry":{"type":"Point","coordinates":[9.966489791870002,49.648101806599996]}},
{"type":"Feature","properties":{"id":"754","locationType":"Bückeburg Air Base","dataField":"Brueckeburg","country":"Germany","faa":"\\N","icao":"ETHB","alt":"230","tz-offset":"1","dst":"E","tz":"Europe/Berlin"},"geometry":{"type":"Point","coordinates":[9.08217,52.2785]}},
{"type":"Feature","properties":{"id":"755","locationType":"Celle Airport","dataField":"Celle","country":"Germany","faa":"ZCN","icao":"ETHC","alt":"129","tz-offset":"1","dst":"E","tz":"Europe/Berlin"},"geometry":{"type":"Point","coordinates":[10.022100448608398,52.59120178222656]}},
{"type":"Feature","properties":{"id":"756","locationType":"Rheine Bentlage Air Base","dataField":"Rheine-brentlange","country":"Germany","faa":"\\N","icao":"ETHE","alt":"129","tz-offset":"1","dst":"E","tz":"Europe/Berlin"},"geometry":{"type":"Point","coordinates":[7.387,52.291199]}},
{"type":"Feature","properties":{"id":"757","locationType":"Fritzlar Airport","dataField":"Fritzlar","country":"Germany","faa":"\\N","icao":"ETHF","alt":"1345","tz-offset":"1","dst":"E","tz":"Europe/Berlin"},"geometry":{"type":"Point","coordinates":[9.286,51.1146]}},
{"type":"Feature","properties":{"id":"758","locationType":"Laupheim Air Base","dataField":"Laupheim","country":"Germany","faa":"\\N","icao":"ETHL","alt":"1766","tz-offset":"1","dst":"E","tz":"Europe/Berlin"},"geometry":{"type":"Point","coordinates":[9.91002,48.220299]}},
{"type":"Feature","properties":{"id":"759","locationType":"Mendig Airport","dataField":"Mendig","country":"Germany","faa":"\\N","icao":"ETHM","alt":"597","tz-offset":"1","dst":"E","tz":"Europe/Berlin"},"geometry":{"type":"Point","coordinates":[7.31533002853,50.3660011292]}},
{"type":"Feature","properties":{"id":"760","locationType":"Niederstetten Army Air Base","dataField":"Niederstetten","country":"Germany","faa":"\\N","icao":"ETHN","alt":"1339","tz-offset":"1","dst":"E","tz":"Europe/Berlin"},"geometry":{"type":"Point","coordinates":[9.958889,49.391945]}},
{"type":"Feature","properties":{"id":"761","locationType":"Roth Airport","dataField":"Roth","country":"Germany","faa":"\\N","icao":"ETHR","alt":"1268","tz-offset":"1","dst":"E","tz":"Europe/Berlin"},"geometry":{"type":"Point","coordinates":[11.100199699401855,49.217498779296875]}},
{"type":"Feature","properties":{"id":"762","locationType":"Fassberg Air Base","dataField":"Fassberg","country":"Germany","faa":"\\N","icao":"ETHS","alt":"245","tz-offset":"1","dst":"E","tz":"Europe/Berlin"},"geometry":{"type":"Point","coordinates":[10.185827,52.919399]}},
{"type":"Feature","properties":{"id":"763","locationType":"Grafenwohr Army Air Field","dataField":"Grafenwoehr","country":"Germany","faa":"\\N","icao":"ETIC","alt":"1363","tz-offset":"1","dst":"E","tz":"Europe/Berlin"},"geometry":{"type":"Point","coordinates":[11.940199851989746,49.698699951171875]}},
{"type":"Feature","properties":{"id":"764","locationType":"Hanau Army Air Field","dataField":"Hanau","country":"Germany","faa":"ZNF","icao":"ETID","alt":"368","tz-offset":"1","dst":"E","tz":"Europe/Berlin"},"geometry":{"type":"Point","coordinates":[8.96159,50.169201]}},
{"type":"Feature","properties":{"id":"765","locationType":"Hohenfels Army Air Field","dataField":"Hohenfels","country":"Germany","faa":"\\N","icao":"ETIH","alt":"1455","tz-offset":"1","dst":"E","tz":"Europe/Berlin"},"geometry":{"type":"Point","coordinates":[11.836099624633789,49.218101501464844]}},
{"type":"Feature","properties":{"id":"766","locationType":"Kitzingen Army Air Field","dataField":"Kitzingen","country":"Germany","faa":"\\N","icao":"ETIN","alt":"689","tz-offset":"1","dst":"E","tz":"Europe/Berlin"},"geometry":{"type":"Point","coordinates":[10.200599670410156,49.743099212646484]}},
{"type":"Feature","properties":{"id":"767","locationType":"Nordholz Naval Airbase","dataField":"Nordholz","country":"Germany","faa":"\\N","icao":"ETMN","alt":"74","tz-offset":"1","dst":"E","tz":"Europe/Berlin"},"geometry":{"type":"Point","coordinates":[8.658499717709999,53.7677001953]}},
{"type":"Feature","properties":{"id":"768","locationType":"Diepholz Air Base","dataField":"Diepholz","country":"Germany","faa":"\\N","icao":"ETND","alt":"128","tz-offset":"1","dst":"E","tz":"Europe/Berlin"},"geometry":{"type":"Point","coordinates":[8.342222,52.585556]}},
{"type":"Feature","properties":{"id":"769","locationType":"Geilenkirchen Air Base","dataField":"Geilenkirchen","country":"Germany","faa":"GKE","icao":"ETNG","alt":"296","tz-offset":"1","dst":"E","tz":"Europe/Berlin"},"geometry":{"type":"Point","coordinates":[6.04242,50.9608]}},
{"type":"Feature","properties":{"id":"770","locationType":"Hohn Airport","dataField":"Hohn","country":"Germany","faa":"\\N","icao":"ETNH","alt":"39","tz-offset":"1","dst":"E","tz":"Europe/Berlin"},"geometry":{"type":"Point","coordinates":[9.538169860839844,54.312198638916016]}},
{"type":"Feature","properties":{"id":"771","locationType":"Jever Air Base","dataField":"Jever","country":"Germany","faa":"\\N","icao":"ETNJ","alt":"24","tz-offset":"1","dst":"E","tz":"Europe/Berlin"},"geometry":{"type":"Point","coordinates":[7.88867,53.533501]}},
{"type":"Feature","properties":{"id":"772","locationType":"Rostock-Laage Airport","dataField":"Laage","country":"Germany","faa":"RLG","icao":"ETNL","alt":"138","tz-offset":"1","dst":"E","tz":"Europe/Berlin"},"geometry":{"type":"Point","coordinates":[12.278300285299999,53.9182014465]}},
{"type":"Feature","properties":{"id":"773","locationType":"Nörvenich Air Base","dataField":"Noervenich","country":"Germany","faa":"\\N","icao":"ETNN","alt":"386","tz-offset":"1","dst":"E","tz":"Europe/Berlin"},"geometry":{"type":"Point","coordinates":[6.65817,50.8312]}},
{"type":"Feature","properties":{"id":"774","locationType":"Schleswig Air Base","dataField":"Schleswig","country":"Germany","faa":"\\N","icao":"ETNS","alt":"70","tz-offset":"1","dst":"E","tz":"Europe/Berlin"},"geometry":{"type":"Point","coordinates":[9.51633,54.459301]}},
{"type":"Feature","properties":{"id":"775","locationType":"Wittmundhafen Airport","dataField":"Wittmundhafen","country":"Germany","faa":"\\N","icao":"ETNT","alt":"26","tz-offset":"1","dst":"E","tz":"Europe/Berlin"},"geometry":{"type":"Point","coordinates":[7.667329788208008,53.54779815673828]}},
{"type":"Feature","properties":{"id":"777","locationType":"Wunstorf Air Base","dataField":"Wunstorf","country":"Germany","faa":"\\N","icao":"ETNW","alt":"187","tz-offset":"1","dst":"E","tz":"Europe/Berlin"},"geometry":{"type":"Point","coordinates":[9.42717,52.457298]}},
{"type":"Feature","properties":{"id":"778","locationType":"Vilseck Army Air Field","dataField":"Vilseck","country":"Germany","faa":"\\N","icao":"ETOI","alt":"1353","tz-offset":"1","dst":"E","tz":"Europe/Berlin"},"geometry":{"type":"Point","coordinates":[11.767200469970703,49.63359832763672]}},
{"type":"Feature","properties":{"id":"779","locationType":"Coleman Army Air Field","dataField":"Coleman","country":"Germany","faa":"\\N","icao":"ETOR","alt":"309","tz-offset":"1","dst":"E","tz":"Europe/Berlin"},"geometry":{"type":"Point","coordinates":[8.463390350341797,49.5635986328125]}},
{"type":"Feature","properties":{"id":"780","locationType":"Wiesbaden Army Airfield","dataField":"Wiesbaden","country":"Germany","faa":"\\N","icao":"ETOU","alt":"461","tz-offset":"1","dst":"E","tz":"Europe/Berlin"},"geometry":{"type":"Point","coordinates":[8.325400352478027,50.049800872802734]}},
{"type":"Feature","properties":{"id":"781","locationType":"Landsberg Lech Air Base","dataField":"Landsberg","country":"Germany","faa":"\\N","icao":"ETSA","alt":"2044","tz-offset":"1","dst":"E","tz":"Europe/Berlin"},"geometry":{"type":"Point","coordinates":[10.906,48.070599]}},
{"type":"Feature","properties":{"id":"782","locationType":"Büchel Air Base","dataField":"Buechel","country":"Germany","faa":"\\N","icao":"ETSB","alt":"1568","tz-offset":"1","dst":"E","tz":"Europe/Berlin"},"geometry":{"type":"Point","coordinates":[7.06333017349,50.1738014221]}},
{"type":"Feature","properties":{"id":"783","locationType":"Erding Airport","dataField":"Erding","country":"Germany","faa":"\\N","icao":"ETSE","alt":"1515","tz-offset":"1","dst":"E","tz":"Europe/Berlin"},"geometry":{"type":"Point","coordinates":[11.948699951171875,48.32229995727539]}},
{"type":"Feature","properties":{"id":"784","locationType":"Fürstenfeldbruck Airport","dataField":"Fuerstenfeldbruck","country":"Germany","faa":"FEL","icao":"ETSF","alt":"1703","tz-offset":"1","dst":"E","tz":"Europe/Berlin"},"geometry":{"type":"Point","coordinates":[11.26694393157959,48.2055549621582]}},
{"type":"Feature","properties":{"id":"785","locationType":"Holzdorf Air Base","dataField":"Holzdorf","country":"Germany","faa":"\\N","icao":"ETSH","alt":"265","tz-offset":"1","dst":"E","tz":"Europe/Berlin"},"geometry":{"type":"Point","coordinates":[13.1677,51.767799]}},
{"type":"Feature","properties":{"id":"786","locationType":"Ingolstadt Manching Airport","dataField":"Ingolstadt","country":"Germany","faa":"IGS","icao":"ETSI","alt":"1202","tz-offset":"1","dst":"E","tz":"Europe/Berlin"},"geometry":{"type":"Point","coordinates":[11.534000396728516,48.7156982421875]}},
{"type":"Feature","properties":{"id":"787","locationType":"Lechfeld Airport","dataField":"Lechfeld","country":"Germany","faa":"\\N","icao":"ETSL","alt":"1822","tz-offset":"1","dst":"E","tz":"Europe/Berlin"},"geometry":{"type":"Point","coordinates":[10.861200332641602,48.18550109863281]}},
{"type":"Feature","properties":{"id":"788","locationType":"Neuburg AFB","dataField":"Neuburg","country":"Germany","faa":"\\N","icao":"ETSN","alt":"1249","tz-offset":"1","dst":"E","tz":"Europe/Berlin"},"geometry":{"type":"Point","coordinates":[11.2115,48.710999]}},
{"type":"Feature","properties":{"id":"789","locationType":"Gütersloh Air Base","dataField":"Guetersloh","country":"Germany","faa":"GUT","icao":"ETUO","alt":"236","tz-offset":"1","dst":"E","tz":"Europe/Berlin"},"geometry":{"type":"Point","coordinates":[8.30633,51.922798]}},
{"type":"Feature","properties":{"id":"3986","locationType":"Memmingen Allgau Airport","dataField":"Memmingen","country":"Germany","faa":"FMM","icao":"EDJA","alt":"2077","tz-offset":"1","dst":"E","tz":"Europe/Berlin"},"geometry":{"type":"Point","coordinates":[10.2395000458,47.988800048799995]}},
{"type":"Feature","properties":{"id":"4165","locationType":"Aachen-Merzbrück Airport","dataField":"Aachen","country":"Germany","faa":"AAH","icao":"EDKA","alt":"623","tz-offset":"1","dst":"E","tz":"Europe/Berlin"},"geometry":{"type":"Point","coordinates":[6.186388969421387,50.823055267333984]}},
{"type":"Feature","properties":{"id":"4166","locationType":"Karlsruhe Baden-Baden Airport","dataField":"Karlsruhe/Baden-Baden","country":"Germany","faa":"FKB","icao":"EDSB","alt":"408","tz-offset":"1","dst":"E","tz":"Europe/Berlin"},"geometry":{"type":"Point","coordinates":[8.08049964905,48.7793998718]}},
{"type":"Feature","properties":{"id":"4198","locationType":"Weeze Airport","dataField":"Weeze","country":"Germany","faa":"NRN","icao":"EDLV","alt":"106","tz-offset":"1","dst":"E","tz":"Europe/Berlin"},"geometry":{"type":"Point","coordinates":[6.14216995239,51.6024017334]}},
{"type":"Feature","properties":{"id":"4207","locationType":"Norden-Norddeich Airport","dataField":"Norden","country":"Germany","faa":"NOE","icao":"EDWS","alt":"3","tz-offset":"1","dst":"E","tz":"Europe/Berlin"},"geometry":{"type":"Point","coordinates":[7.19027805328,53.633056640599996]}},
{"type":"Feature","properties":{"id":"4208","locationType":"Juist Airport","dataField":"Juist","country":"Germany","faa":"JUI","icao":"EDWJ","alt":"7","tz-offset":"1","dst":"E","tz":"Europe/Berlin"},"geometry":{"type":"Point","coordinates":[7.055832862854004,53.68111038208008]}},
{"type":"Feature","properties":{"id":"5557","locationType":"Heringsdorf Airport","dataField":"Heringsdorf","country":"Germany","faa":"HDF","icao":"EDAH","alt":"93","tz-offset":"1","dst":"E","tz":"Europe/Berlin"},"geometry":{"type":"Point","coordinates":[14.152299881,53.8787002563]}},
{"type":"Feature","properties":{"id":"5558","locationType":"Heide-Büsum Airport","dataField":"Büsum","country":"Germany","faa":"HEI","icao":"EDXB","alt":"7","tz-offset":"1","dst":"E","tz":"Europe/Berlin"},"geometry":{"type":"Point","coordinates":[8.90166664124,54.153331756600004]}},
{"type":"Feature","properties":{"id":"5559","locationType":"Helgoland-Düne Airport","dataField":"Helgoland","country":"Germany","faa":"HGL","icao":"EDXH","alt":"8","tz-offset":"1","dst":"E","tz":"Europe/Berlin"},"geometry":{"type":"Point","coordinates":[7.91583299637,54.185279846200004]}},
{"type":"Feature","properties":{"id":"6423","locationType":"Rügen Airport","dataField":"Ruegen","country":"Germany","faa":"GTI","icao":"EDCG","alt":"69","tz-offset":"1","dst":"U","tz":"Europe/Berlin"},"geometry":{"type":"Point","coordinates":[13.3255558014,54.3833312988]}},
{"type":"Feature","properties":{"id":"6450","locationType":"Tannheim Airport","dataField":"Tannheim","country":"Germany","faa":"\\N","icao":"EDMT","alt":"1903","tz-offset":"1","dst":"E","tz":"Europe/Berlin"},"geometry":{"type":"Point","coordinates":[10.098610878,48.0099983215]}},
{"type":"Feature","properties":{"id":"6489","locationType":"Bienenfarm Airport","dataField":"Nauen","country":"Germany","faa":"\\N","icao":"EDOI","alt":"131","tz-offset":"1","dst":"E","tz":"Europe/Berlin"},"geometry":{"type":"Point","coordinates":[12.745833396911621,52.66166687011719]}},
{"type":"Feature","properties":{"id":"6522","locationType":"Uetersen/Heist Airport","dataField":"Uetersen","country":"Germany","faa":"\\N","icao":"EDHE","alt":"23","tz-offset":"1","dst":"E","tz":"Europe/Berlin"},"geometry":{"type":"Point","coordinates":[9.704167366027832,53.64638900756836]}},
{"type":"Feature","properties":{"id":"6798","locationType":"Weser-Wümme Airport","dataField":"Hellwege","country":"Germany","faa":"\\N","icao":"EDWM","alt":"59","tz-offset":"1","dst":"E","tz":"Europe/Berlin"},"geometry":{"type":"Point","coordinates":[9.208610534667969,53.053890228271484]}},
{"type":"Feature","properties":{"id":"6830","locationType":"Flugplatz Finsterwalde/Heinrichsruh","dataField":"Finsterwalde","country":"Germany","faa":"\\N","icao":"EDAS","alt":"384","tz-offset":"1","dst":"E","tz":"Europe/Berlin"},"geometry":{"type":"Point","coordinates":[13.675556,51.634445]}},
{"type":"Feature","properties":{"id":"6840","locationType":"Dinslaken/Schwarze Heide Airport","dataField":"Dinslaken","country":"Germany","faa":"\\N","icao":"EDLD","alt":"217","tz-offset":"1","dst":"E","tz":"Europe/Berlin"},"geometry":{"type":"Point","coordinates":[6.865278,51.616112]}},
{"type":"Feature","properties":{"id":"6841","locationType":"Höxter-Holzminden Airport","dataField":"Hoexter Holzminden","country":"Germany","faa":"\\N","icao":"EDVI","alt":"1263","tz-offset":"1","dst":"E","tz":"Europe/Berlin"},"geometry":{"type":"Point","coordinates":[9.37833309173584,51.80666732788086]}},
{"type":"Feature","properties":{"id":"6910","locationType":"Harle Airport","dataField":"Harlesiel","country":"Germany","faa":"\\N","icao":"EDXP","alt":"7","tz-offset":"1","dst":"E","tz":"Europe/Berlin"},"geometry":{"type":"Point","coordinates":[7.820278167724609,53.706668853759766]}},
{"type":"Feature","properties":{"id":"6911","locationType":"Wangerooge Airport","dataField":"Wangerooge","country":"Germany","faa":"AGE","icao":"EDWG","alt":"7","tz-offset":"1","dst":"E","tz":"Europe/Berlin"},"geometry":{"type":"Point","coordinates":[7.913888931274414,53.782779693603516]}},
{"type":"Feature","properties":{"id":"6975","locationType":"Langeoog Airport","dataField":"Langeoog","country":"Germany","faa":"LGO","icao":"EDWL","alt":"7","tz-offset":"1","dst":"E","tz":"Europe/Berlin"},"geometry":{"type":"Point","coordinates":[7.497777938842773,53.74250030517578]}},
{"type":"Feature","properties":{"id":"7047","locationType":"Whiting Field Naval Air Station South Airport","dataField":"Cuxhaven","country":"Germany","faa":"NDZ","icao":"KNDZ","alt":"177","tz-offset":"-6","dst":"E","tz":"America/Chicago"},"geometry":{"type":"Point","coordinates":[-87.02300262451172,30.70439910888672]}},
{"type":"Feature","properties":{"id":"7134","locationType":"Nabern/Teck Airport","dataField":"Kirchheim-Teck","country":"Germany","faa":"\\N","icao":"EDTN","alt":"1214","tz-offset":"1","dst":"E","tz":"Europe/Berlin"},"geometry":{"type":"Point","coordinates":[9.477222442629998,48.61277771]}},
{"type":"Feature","properties":{"id":"7538","locationType":"Würzburg-Schenkenturm Airport","dataField":"Wuerzburg","country":"Germany","faa":"\\N","icao":"EDFW","alt":"991","tz-offset":"1","dst":"E","tz":"Europe/Berlin"},"geometry":{"type":"Point","coordinates":[9.897500038146973,49.817779541015625]}},
{"type":"Feature","properties":{"id":"7544","locationType":"Hopsten Air Base","dataField":"Hopsten","country":"Germany","faa":"\\N","icao":"ETNP","alt":"423","tz-offset":"1","dst":"E","tz":"Europe/Berlin"},"geometry":{"type":"Point","coordinates":[7.541329860687256,52.33869934082031]}},
{"type":"Feature","properties":{"id":"7726","locationType":"Linkenheim Airport","dataField":"Linkenheim","country":"Germany","faa":"\\N","icao":"EDRI","alt":"325","tz-offset":"1","dst":"E","tz":"Europe/Berlin"},"geometry":{"type":"Point","coordinates":[8.394721984863281,49.141666412353516]}},
{"type":"Feature","properties":{"id":"7787","locationType":"Engels heliport","dataField":"Ebenhofen","country":"Germany","faa":"EBE","icao":"EBEN","alt":"33","tz-offset":"1","dst":"E","tz":"Europe/Brussels"},"geometry":{"type":"Point","coordinates":[4.5808329582214355,51.211666107177734]}},
{"type":"Feature","properties":{"id":"7792","locationType":"Emporia Municipal Airport","dataField":"Kempten","country":"Germany","faa":"EMP","icao":"KEMP","alt":"1208","tz-offset":"-6","dst":"E","tz":"America/Chicago"},"geometry":{"type":"Point","coordinates":[-96.19120025630001,38.3320999146]}},
{"type":"Feature","properties":{"id":"7800","locationType":"Skå-Edeby Airport","dataField":"Essen","country":"Germany","faa":"ESX","icao":"ESSE","alt":"0","tz-offset":"1","dst":"E","tz":"Europe/Stockholm"},"geometry":{"type":"Point","coordinates":[17.74049949645996,59.34510040283203]}},
{"type":"Feature","properties":{"id":"7831","locationType":"Hunt Field","dataField":"Lindau","country":"Germany","faa":"LND","icao":"KLND","alt":"5586","tz-offset":"-7","dst":"E","tz":"America/Denver"},"geometry":{"type":"Point","coordinates":[-108.730003357,42.8152008057]}},
{"type":"Feature","properties":{"id":"7855","locationType":"Roitzschjora Airport","dataField":"Roitzschjora","country":"Germany","faa":"\\N","icao":"EDAW","alt":"289","tz-offset":"1","dst":"U","tz":"Europe/Berlin"},"geometry":{"type":"Point","coordinates":[12.494443893432617,51.57777786254883]}},
{"type":"Feature","properties":{"id":"7893","locationType":"Nannhausen Airport","dataField":"Nannhausen","country":"Germany","faa":"\\N","icao":"EDRN","alt":"1224","tz-offset":"1","dst":"E","tz":"Europe/Berlin"},"geometry":{"type":"Point","coordinates":[7.47916698456,49.9702796936]}},
{"type":"Feature","properties":{"id":"7903","locationType":"Marl-Loemühle Airport","dataField":"Recklinghausen","country":"Germany","faa":"\\N","icao":"EDLM","alt":"240","tz-offset":"1","dst":"U","tz":"Europe/Berlin"},"geometry":{"type":"Point","coordinates":[7.16333,51.647202]}},
{"type":"Feature","properties":{"id":"7905","locationType":"Lahr Airport","dataField":"Lahr","country":"Germany","faa":"LHA","icao":"EDTL","alt":"511","tz-offset":"1","dst":"E","tz":"Europe/Berlin"},"geometry":{"type":"Point","coordinates":[7.82772016525,48.3693008423]}},
{"type":"Feature","properties":{"id":"7918","locationType":"Regensburg-Oberhub Airport","dataField":"Regensburg","country":"Germany","faa":"\\N","icao":"EDNR","alt":"1299","tz-offset":"1","dst":"E","tz":"Europe/Berlin"},"geometry":{"type":"Point","coordinates":[12.081944465637207,49.141944885253906]}},
{"type":"Feature","properties":{"id":"7933","locationType":"Cochstedt Airport","dataField":"Cochstedt","country":"Germany","faa":"CSO","icao":"EDBC","alt":"594","tz-offset":"1","dst":"E","tz":"Europe/Berlin"},"geometry":{"type":"Point","coordinates":[11.42029953,51.8563995361]}},
{"type":"Feature","properties":{"id":"8006","locationType":"Landshut Airport","dataField":"Landshut","country":"Germany","faa":"\\N","icao":"EDML","alt":"1312","tz-offset":"1","dst":"E","tz":"Europe/Berlin"},"geometry":{"type":"Point","coordinates":[12.033332824707031,48.51166534423828]}},
{"type":"Feature","properties":{"id":"8007","locationType":"Itzehoe/Hungriger Wolf Airport","dataField":"Itzehoe","country":"Germany","faa":"\\N","icao":"EDHF","alt":"89","tz-offset":"1","dst":"E","tz":"Europe/Berlin"},"geometry":{"type":"Point","coordinates":[9.578611373901367,53.99444580078125]}},
{"type":"Feature","properties":{"id":"8035","locationType":"Allstedt Airport","dataField":"Allstedt","country":"Germany","faa":"\\N","icao":"EDBT","alt":"932","tz-offset":"1","dst":"E","tz":"Europe/Berlin"},"geometry":{"type":"Point","coordinates":[11.446666717529297,51.38055419921875]}},
{"type":"Feature","properties":{"id":"8039","locationType":"Peine-Eddesse Airport","dataField":"Peine","country":"Germany","faa":"\\N","icao":"EDVP","alt":"249","tz-offset":"1","dst":"E","tz":"Europe/Berlin"},"geometry":{"type":"Point","coordinates":[10.228889465299998,52.402500152600005]}},
{"type":"Feature","properties":{"id":"8054","locationType":"Spremberg-Welzow Airport","dataField":"Welzow","country":"Germany","faa":"\\N","icao":"EDCY","alt":"374","tz-offset":"1","dst":"E","tz":"Europe/Berlin"},"geometry":{"type":"Point","coordinates":[14.136943817138672,51.575557708740234]}},
{"type":"Feature","properties":{"id":"8085","locationType":"Rotenburg (Wümme) Airport","dataField":"Rotenburg Wuemme","country":"Germany","faa":"\\N","icao":"EDXQ","alt":"98","tz-offset":"1","dst":"E","tz":"Europe/Berlin"},"geometry":{"type":"Point","coordinates":[9.348610877990723,53.128334045410156]}},
{"type":"Feature","properties":{"id":"8086","locationType":"Wipperfürth-Neye Airport","dataField":"Wipperfuerth","country":"Germany","faa":"\\N","icao":"EDKN","alt":"863","tz-offset":"1","dst":"E","tz":"Europe/Berlin"},"geometry":{"type":"Point","coordinates":[7.373610973358154,51.124168395996094]}},
{"type":"Feature","properties":{"id":"8087","locationType":"Osnabrück-Atterheide Airport","dataField":"Osnabrueck","country":"Germany","faa":"\\N","icao":"EDWO","alt":"285","tz-offset":"1","dst":"E","tz":"Europe/Berlin"},"geometry":{"type":"Point","coordinates":[7.969721794128418,52.2863883972168]}},
{"type":"Feature","properties":{"id":"8088","locationType":"Flugplatz Ballenstedt","dataField":"Ballenstedt","country":"Germany","faa":"\\N","icao":"EDCB","alt":"535","tz-offset":"1","dst":"E","tz":"Europe/Berlin"},"geometry":{"type":"Point","coordinates":[11.229722,51.745834]}},
{"type":"Feature","properties":{"id":"8089","locationType":"Hartenholm Airport","dataField":"Hasenmoor","country":"Germany","faa":"\\N","icao":"EDHM","alt":"108","tz-offset":"1","dst":"E","tz":"Europe/Berlin"},"geometry":{"type":"Point","coordinates":[10.035555839538574,53.915000915527344]}},
{"type":"Feature","properties":{"id":"8090","locationType":"Ganderkesee Atlas Airfield Airport","dataField":"Ganderkesee","country":"Germany","faa":"\\N","icao":"EDWQ","alt":"95","tz-offset":"1","dst":"E","tz":"Europe/Berlin"},"geometry":{"type":"Point","coordinates":[8.505556106567383,53.036109924316406]}},
{"type":"Feature","properties":{"id":"8091","locationType":"Nienburg-Holzbalge Airport","dataField":"Nienburg Weser","country":"Germany","faa":"\\N","icao":"EDXI","alt":"82","tz-offset":"1","dst":"E","tz":"Europe/Berlin"},"geometry":{"type":"Point","coordinates":[9.162500381469727,52.709720611572266]}},
{"type":"Feature","properties":{"id":"8092","locationType":"Damme Airport","dataField":"Damme","country":"Germany","faa":"\\N","icao":"EDWC","alt":"151","tz-offset":"1","dst":"E","tz":"Europe/Berlin"},"geometry":{"type":"Point","coordinates":[8.185556411743164,52.48749923706055]}},
{"type":"Feature","properties":{"id":"8093","locationType":"Borkenberge Airport","dataField":"Duelmen","country":"Germany","faa":"\\N","icao":"EDLB","alt":"157","tz-offset":"1","dst":"E","tz":"Europe/Berlin"},"geometry":{"type":"Point","coordinates":[7.28805589676,51.779998779299994]}},
{"type":"Feature","properties":{"id":"8094","locationType":"Obermehler-Schlotheim Airport","dataField":"Obermehler","country":"Germany","faa":"\\N","icao":"EDCO","alt":"909","tz-offset":"1","dst":"E","tz":"Europe/Berlin"},"geometry":{"type":"Point","coordinates":[10.634721755981445,51.26777648925781]}},
{"type":"Feature","properties":{"id":"8095","locationType":"Hodenhagen Airport","dataField":"Hodenhagen","country":"Germany","faa":"\\N","icao":"EDVH","alt":"79","tz-offset":"1","dst":"E","tz":"Europe/Berlin"},"geometry":{"type":"Point","coordinates":[9.605555534362793,52.761112213134766]}},
{"type":"Feature","properties":{"id":"8096","locationType":"Grube Airport","dataField":"Grube","country":"Germany","faa":"\\N","icao":"EDHB","alt":"7","tz-offset":"1","dst":"E","tz":"Europe/Berlin"},"geometry":{"type":"Point","coordinates":[11.0247220993042,54.24444580078125]}},
{"type":"Feature","properties":{"id":"8098","locationType":"Celle-Arloh Airport","dataField":"Celle","country":"Germany","faa":"\\N","icao":"EDVC","alt":"207","tz-offset":"1","dst":"E","tz":"Europe/Berlin"},"geometry":{"type":"Point","coordinates":[10.11138916015625,52.68722152709961]}},
{"type":"Feature","properties":{"id":"8099","locationType":"Uelzen Airport","dataField":"Uelzen","country":"Germany","faa":"\\N","icao":"EDVU","alt":"246","tz-offset":"1","dst":"E","tz":"Europe/Berlin"},"geometry":{"type":"Point","coordinates":[10.4650001526,52.9838905334]}},
{"type":"Feature","properties":{"id":"8100","locationType":"Hamm-Lippewiesen Airport","dataField":"Hamm","country":"Germany","faa":"\\N","icao":"EDLH","alt":"190","tz-offset":"1","dst":"E","tz":"Europe/Berlin"},"geometry":{"type":"Point","coordinates":[7.816111087799072,51.689720153808594]}},
{"type":"Feature","properties":{"id":"8101","locationType":"Lüsse Airport","dataField":"Luesse","country":"Germany","faa":"\\N","icao":"EDOJ","alt":"217","tz-offset":"1","dst":"E","tz":"Europe/Berlin"},"geometry":{"type":"Point","coordinates":[12.664722442626953,52.141109466552734]}},
{"type":"Feature","properties":{"id":"8102","locationType":"Porta Westfalica Airport","dataField":"Bad Oeynhausen","country":"Germany","faa":"\\N","icao":"EDVY","alt":"148","tz-offset":"1","dst":"E","tz":"Europe/Berlin"},"geometry":{"type":"Point","coordinates":[8.859167098999023,52.22083282470703]}},
{"type":"Feature","properties":{"id":"8103","locationType":"Brilon/Hochsauerlandkreis Airport","dataField":"Brilon","country":"Germany","faa":"\\N","icao":"EDKO","alt":"1509","tz-offset":"1","dst":"E","tz":"Europe/Berlin"},"geometry":{"type":"Point","coordinates":[8.641667366027832,51.40250015258789]}},
{"type":"Feature","properties":{"id":"8104","locationType":"Hameln-Pyrmont Airport","dataField":"Bad Pyrmont","country":"Germany","faa":"\\N","icao":"EDVW","alt":"1178","tz-offset":"1","dst":"E","tz":"Europe/Berlin"},"geometry":{"type":"Point","coordinates":[9.291666984558105,51.96666717529297]}},
{"type":"Feature","properties":{"id":"8105","locationType":"Nordholz-Spieka Airfield","dataField":"Cuxhaven","country":"Germany","faa":"\\N","icao":"EDXN","alt":"72","tz-offset":"1","dst":"E","tz":"Europe/Berlin"},"geometry":{"type":"Point","coordinates":[8.643611,53.767223]}},
{"type":"Feature","properties":{"id":"8106","locationType":"Köthen Airport","dataField":"Koethen","country":"Germany","faa":"\\N","icao":"EDCK","alt":"305","tz-offset":"1","dst":"E","tz":"Europe/Berlin"},"geometry":{"type":"Point","coordinates":[11.952777862500001,51.7211112976]}},
{"type":"Feature","properties":{"id":"8107","locationType":"St. Michaelisdonn Airport","dataField":"Sankt Michaelisdonn","country":"Germany","faa":"\\N","icao":"EDXM","alt":"125","tz-offset":"1","dst":"E","tz":"Europe/Berlin"},"geometry":{"type":"Point","coordinates":[9.144721984863281,53.978057861328125]}},
{"type":"Feature","properties":{"id":"8108","locationType":"Salzgitter-Drütte Airport","dataField":"Salzgitter","country":"Germany","faa":"\\N","icao":"EDVS","alt":"328","tz-offset":"1","dst":"E","tz":"Europe/Berlin"},"geometry":{"type":"Point","coordinates":[10.426667213439941,52.15444564819336]}},
{"type":"Feature","properties":{"id":"8109","locationType":"Karlshöfen Airport","dataField":"Karlshoefen","country":"Germany","faa":"\\N","icao":"EDWK","alt":"20","tz-offset":"1","dst":"E","tz":"Europe/Berlin"},"geometry":{"type":"Point","coordinates":[9.028332710266113,53.33277893066406]}},
{"type":"Feature","properties":{"id":"8110","locationType":"Oldenburg-Hatten Airport","dataField":"Oldenburg","country":"Germany","faa":"\\N","icao":"EDWH","alt":"26","tz-offset":"1","dst":"E","tz":"Europe/Berlin"},"geometry":{"type":"Point","coordinates":[8.313611030578613,53.06888961791992]}},
{"type":"Feature","properties":{"id":"8111","locationType":"Rinteln Airport","dataField":"Rinteln","country":"Germany","faa":"\\N","icao":"EDVR","alt":"180","tz-offset":"1","dst":"E","tz":"Europe/Berlin"},"geometry":{"type":"Point","coordinates":[9.053333282470703,52.17527770996094]}},
{"type":"Feature","properties":{"id":"8112","locationType":"Münster-Telgte Airport","dataField":"Muenster","country":"Germany","faa":"\\N","icao":"EDLT","alt":"177","tz-offset":"1","dst":"E","tz":"Europe/Berlin"},"geometry":{"type":"Point","coordinates":[7.773889064788818,51.94444274902344]}},
{"type":"Feature","properties":{"id":"8113","locationType":"St. Peter-Ording Airport","dataField":"Sankt Peter-Ording","country":"Germany","faa":"PSH","icao":"EDXO","alt":"7","tz-offset":"1","dst":"E","tz":"Europe/Berlin"},"geometry":{"type":"Point","coordinates":[8.686944007873535,54.30888748168945]}},
{"type":"Feature","properties":{"id":"8114","locationType":"Lüchow-Rehbeck Airport","dataField":"Luechow","country":"Germany","faa":"\\N","icao":"EDHC","alt":"49","tz-offset":"1","dst":"E","tz":"Europe/Berlin"},"geometry":{"type":"Point","coordinates":[11.144444465637207,53.016109466552734]}},
{"type":"Feature","properties":{"id":"8115","locationType":"Klietz/Scharlibbe Airport","dataField":"Scharlibbe","country":"Germany","faa":"\\N","icao":"EDCL","alt":"95","tz-offset":"1","dst":"E","tz":"Europe/Berlin"},"geometry":{"type":"Point","coordinates":[12.073332786560059,52.709442138671875]}},
{"type":"Feature","properties":{"id":"8116","locationType":"Burg Airport","dataField":"Burg","country":"Germany","faa":"\\N","icao":"EDBG","alt":"174","tz-offset":"1","dst":"E","tz":"Europe/Berlin"},"geometry":{"type":"Point","coordinates":[11.856110572814941,52.241668701171875]}},
{"type":"Feature","properties":{"id":"8119","locationType":"Bad Neuenahr-Ahrweiler Airport","dataField":"Bad Neuenahr","country":"Germany","faa":"\\N","icao":"EDRA","alt":"673","tz-offset":"1","dst":"E","tz":"Europe/Berlin"},"geometry":{"type":"Point","coordinates":[7.136388778686523,50.557777404785156]}},
{"type":"Feature","properties":{"id":"8120","locationType":"Bad Dürkheim Airport","dataField":"Bad Duerkheim","country":"Germany","faa":"\\N","icao":"EDRF","alt":"351","tz-offset":"1","dst":"E","tz":"Europe/Berlin"},"geometry":{"type":"Point","coordinates":[8.196389198303223,49.47305679321289]}},
{"type":"Feature","properties":{"id":"8124","locationType":"Leverkusen Airport","dataField":"Leverkusen","country":"Germany","faa":"\\N","icao":"EDKL","alt":"157","tz-offset":"1","dst":"E","tz":"Europe/Berlin"},"geometry":{"type":"Point","coordinates":[7.005556106567383,51.01527786254883]}},
{"type":"Feature","properties":{"id":"8126","locationType":"Wershofen/Eifel Airport","dataField":"Wershofen","country":"Germany","faa":"\\N","icao":"EDRV","alt":"1581","tz-offset":"1","dst":"E","tz":"Europe/Berlin"},"geometry":{"type":"Point","coordinates":[6.783332824707031,50.45138931274414]}},
{"type":"Feature","properties":{"id":"8432","locationType":"Gera-Leumnitz Airport","dataField":"Gera","country":"Germany","faa":"\\N","icao":"EDAJ","alt":"1014","tz-offset":"1","dst":"E","tz":"Europe/Berlin"},"geometry":{"type":"Point","coordinates":[12.135832786560059,50.88166809082031]}},
{"type":"Feature","properties":{"id":"8459","locationType":"Oerlinghausen Airport","dataField":"TELGTE","country":"Germany","faa":"\\N","icao":"EDLO","alt":"558","tz-offset":"1","dst":"E","tz":"Europe/Berlin"},"geometry":{"type":"Point","coordinates":[8.661666870117188,51.932220458984375]}},
{"type":"Feature","properties":{"id":"8500","locationType":"Fuerstenwalde Airport","dataField":"Furstenwalde","country":"Germany","faa":"\\N","icao":"EDAL","alt":"184","tz-offset":"1","dst":"E","tz":"Europe/Berlin"},"geometry":{"type":"Point","coordinates":[14.0972003937,52.3905982971]}},
{"type":"Feature","properties":{"id":"8501","locationType":"Eberswalde-Finow Airport","dataField":"Eberswalde","country":"Germany","faa":"\\N","icao":"EDAV","alt":"121","tz-offset":"1","dst":"E","tz":"Europe/Berlin"},"geometry":{"type":"Point","coordinates":[13.693611145019531,52.82722091674805]}},
{"type":"Feature","properties":{"id":"8603","locationType":"Saarmund Airport","dataField":"Saarmund","country":"Germany","faa":"\\N","icao":"EDCS","alt":"174","tz-offset":"1","dst":"E","tz":"Europe/Berlin"},"geometry":{"type":"Point","coordinates":[13.100556373596191,52.30833435058594]}},
{"type":"Feature","properties":{"id":"8620","locationType":"Karlsruhe-Forchheim Airport","dataField":"Karlsruhe","country":"Germany","faa":"\\N","icao":"EDTK","alt":"381","tz-offset":"1","dst":"E","tz":"Europe/Berlin"},"geometry":{"type":"Point","coordinates":[8.3355,48.9843]}},
{"type":"Feature","properties":{"id":"8621","locationType":"Weinheim/Bergstraße Airport","dataField":"Weinheim","country":"Germany","faa":"\\N","icao":"EDGZ","alt":"318","tz-offset":"1","dst":"E","tz":"Europe/Berlin"},"geometry":{"type":"Point","coordinates":[8.610555648803711,49.567501068115234]}},
{"type":"Feature","properties":{"id":"8671","locationType":"Grefrath-Niershorst Airport","dataField":"Grefrath","country":"Germany","faa":"\\N","icao":"EDLF","alt":"105","tz-offset":"1","dst":"E","tz":"Europe/Berlin"},"geometry":{"type":"Point","coordinates":[6.3594441413879395,51.33388900756836]}},
{"type":"Feature","properties":{"id":"8689","locationType":"Segeletz Airport","dataField":"Segeletz","country":"Germany","faa":"\\N","icao":"EDAI","alt":"141","tz-offset":"1","dst":"E","tz":"Europe/Berlin"},"geometry":{"type":"Point","coordinates":[12.541943550109863,52.82666778564453]}},
{"type":"Feature","properties":{"id":"8750","locationType":"Peenemünde Airport","dataField":"Peenemunde","country":"Germany","faa":"PEF","icao":"EDCP","alt":"7","tz-offset":"1","dst":"E","tz":"Europe/Berlin"},"geometry":{"type":"Point","coordinates":[13.774443626399998,54.1577796936]}},
{"type":"Feature","properties":{"id":"8855","locationType":"Neustadt-Glewe Airport","dataField":"Neustadt-Glewe","country":"Germany","faa":"\\N","icao":"EDAN","alt":"115","tz-offset":"1","dst":"E","tz":"Europe/Berlin"},"geometry":{"type":"Point","coordinates":[11.615278244018555,53.35972213745117]}},
{"type":"Feature","properties":{"id":"8860","locationType":"Tutow Airport","dataField":"Wildenrath","country":"Germany","faa":"\\N","icao":"EDUW","alt":"26","tz-offset":"1","dst":"E","tz":"Europe/Berlin"},"geometry":{"type":"Point","coordinates":[13.218889236450195,53.92194366455078]}},
{"type":"Feature","properties":{"id":"8861","locationType":"Bremgarten Airport","dataField":"Bremgarten","country":"Germany","faa":"\\N","icao":"EDTG","alt":"696","tz-offset":"1","dst":"E","tz":"Europe/Berlin"},"geometry":{"type":"Point","coordinates":[7.6177778244,47.9027786255]}},
{"type":"Feature","properties":{"id":"8862","locationType":"Bitburg Airport","dataField":"Birburg","country":"Germany","faa":"BBJ","icao":"EDRB","alt":"1220","tz-offset":"1","dst":"U","tz":"Europe/Berlin"},"geometry":{"type":"Point","coordinates":[6.565,49.945278]}},
{"type":"Feature","properties":{"id":"9079","locationType":"Thalmässing-Waizenhofen Airport","dataField":"Thalmaessing","country":"Germany","faa":"\\N","icao":"EDPW","alt":"1893","tz-offset":"1","dst":"E","tz":"Europe/Berlin"},"geometry":{"type":"Point","coordinates":[11.209166526794434,49.06416702270508]}},
{"type":"Feature","properties":{"id":"9100","locationType":"Ansbach-Petersdorf Airport","dataField":"Ansbach","country":"Germany","faa":"\\N","icao":"EDQF","alt":"1371","tz-offset":"1","dst":"E","tz":"Europe/Berlin"},"geometry":{"type":"Point","coordinates":[10.669444,49.361111]}},
{"type":"Feature","properties":{"id":"9137","locationType":"Oberschleißheim Airfield","dataField":"Schleissheim","country":"Germany","faa":"\\N","icao":"EDNX","alt":"1594","tz-offset":"1","dst":"E","tz":"Europe/Berlin"},"geometry":{"type":"Point","coordinates":[11.561388969400001,48.2394447327]}},
{"type":"Feature","properties":{"id":"9141","locationType":"Verden-Scharnhorst Airport","dataField":"Verden","country":"Germany","faa":"\\N","icao":"EDWV","alt":"144","tz-offset":"1","dst":"E","tz":"Europe/Berlin"},"geometry":{"type":"Point","coordinates":[9.282777786254883,52.96527862548828]}},
{"type":"Feature","properties":{"id":"9147","locationType":"Nittenau-Bruck Airport","dataField":"Nittenau","country":"Germany","faa":"\\N","icao":"EDNM","alt":"1161","tz-offset":"1","dst":"E","tz":"Europe/Berlin"},"geometry":{"type":"Point","coordinates":[12.296667098999023,49.22249984741211]}},
{"type":"Feature","properties":{"id":"9232","locationType":"Neumünster Airport","dataField":"Neumuenster","country":"Germany","faa":"EUM","icao":"EDHN","alt":"72","tz-offset":"1","dst":"E","tz":"Europe/Berlin"},"geometry":{"type":"Point","coordinates":[9.941389083862305,54.079444885253906]}},
{"type":"Feature","properties":{"id":"9380","locationType":"Pellworm Field","dataField":"Pellworm","country":"Germany","faa":"\\N","icao":"EDHP","alt":"3","tz-offset":"1","dst":"E","tz":"Europe/Berlin"},"geometry":{"type":"Point","coordinates":[8.68000030518,54.5363883972]}},
{"type":"Feature","properties":{"id":"10723","locationType":"Elsenthal Grafe Airport","dataField":"Elsenthal","country":"Germany","faa":"\\N","icao":"EDNF","alt":"1417","tz-offset":"1","dst":"E","tz":"\\N"},"geometry":{"type":"Point","coordinates":[13.367500305175781,48.8224983215332]}},
{"type":"Feature","properties":{"id":"10776","locationType":"Meschede-Schüren Airport","dataField":"Meschede","country":"Germany","faa":"\\N","icao":"EDKM","alt":"1434","tz-offset":"1","dst":"E","tz":"\\N"},"geometry":{"type":"Point","coordinates":[8.239167213439941,51.30277633666992]}},
{"type":"Feature","properties":{"id":"11032","locationType":"Stade Airport","dataField":"Stade","country":"Germany","faa":"\\N","icao":"EDHS","alt":"62","tz-offset":"1","dst":"E","tz":"\\N"},"geometry":{"type":"Point","coordinates":[9.499167442321777,53.56111145019531]}},
{"type":"Feature","properties":{"id":"11132","locationType":"Gießen-Lützellinden Airport","dataField":"Giessen","country":"Germany","faa":"\\N","icao":"EDFL","alt":"755","tz-offset":"1","dst":"E","tz":"\\N"},"geometry":{"type":"Point","coordinates":[8.590277671813965,50.543888092041016]}},
{"type":"Feature","properties":{"id":"11718","locationType":"Gelnhausen Airport","dataField":"Gelnhausen","country":"Germany","faa":"\\N","icao":"EDFG","alt":"446","tz-offset":"1","dst":"E","tz":"\\N"},"geometry":{"type":"Point","coordinates":[9.170000076293945,50.19722366333008]}},
{"type":"Feature","properties":{"id":"11720","locationType":"Lauterbach Airport","dataField":"Lauterbach-Wernges","country":"Germany","faa":"\\N","icao":"EDFT","alt":"1211","tz-offset":"1","dst":"E","tz":"\\N"},"geometry":{"type":"Point","coordinates":[9.410833358764648,50.68333435058594]}},
{"type":"Feature","properties":{"id":"11721","locationType":"Aschaffenburg Airport","dataField":"Aschaffenburg","country":"Germany","faa":"\\N","icao":"EDFC","alt":"410","tz-offset":"1","dst":"E","tz":"\\N"},"geometry":{"type":"Point","coordinates":[9.063888549804688,49.93888854980469]}},
{"type":"Feature","properties":{"id":"11735","locationType":"Reichelsheim Airport","dataField":"Reichelsheim","country":"Germany","faa":"\\N","icao":"EDFB","alt":"397","tz-offset":"1","dst":"E","tz":"\\N"},"geometry":{"type":"Point","coordinates":[8.878055572509766,50.33583450317383]}},
{"type":"Feature","properties":{"id":"11737","locationType":"Marburg-Schönstadt Airport","dataField":"Schoenstadt","country":"Germany","faa":"\\N","icao":"EDFN","alt":"833","tz-offset":"1","dst":"E","tz":"\\N"},"geometry":{"type":"Point","coordinates":[8.8149995803833,50.87444305419922]}},
{"type":"Feature","properties":{"id":"11738","locationType":"Lauenbrück Airport","dataField":"Lauenbrueck","country":"Germany","faa":"\\N","icao":"EDHU","alt":"98","tz-offset":"1","dst":"E","tz":"\\N"},"geometry":{"type":"Point","coordinates":[9.573332786560059,53.20750045776367]}},
{"type":"Feature","properties":{"id":"11739","locationType":"Hüttenbusch Airport","dataField":"Huettenbusch","country":"Germany","faa":"\\N","icao":"EDXU","alt":"10","tz-offset":"1","dst":"E","tz":"\\N"},"geometry":{"type":"Point","coordinates":[8.947221755981445,53.28666687011719]}},
{"type":"Feature","properties":{"id":"11785","locationType":"Neubrandenburg Airport","dataField":"Neubrandenburg","country":"Germany","faa":"FNB","icao":"EDBN","alt":"228","tz-offset":"\\N","dst":"\\N","tz":"\\N"},"geometry":{"type":"Point","coordinates":[13.306,53.6022]}},
{"type":"Feature","properties":{"id":"11786","locationType":"Airport Bamberg-Breitenau","dataField":"Bamberg","country":"Germany","faa":"\\N","icao":"EDQA","alt":"811","tz-offset":"\\N","dst":"\\N","tz":"\\N"},"geometry":{"type":"Point","coordinates":[10.914233,49.920403]}},
{"type":"Feature","properties":{"id":"11787","locationType":"Zerbst Airport","dataField":"Zerbst/Anhalt","country":"Germany","faa":"\\N","icao":"EDUZ","alt":"289","tz-offset":"\\N","dst":"\\N","tz":"\\N"},"geometry":{"type":"Point","coordinates":[12.148611068725586,52.000831604003906]}}
  ]}